Writing an R package - 4 Package Contents
…
my_select(penguins, col = species)

Error in `select()`:
! object 'species' not found

One solution is to use the curly-curly notation

#select
my_select2 <- function(data, col){
  select(data, {{col}})
}

my_select2(penguins, col = species)

# A tibble: 344 × 1
   species
   <fct>  
 1 Adelie 
 2 Adelie 
 3 Adelie 
 4 Adelie 
 5 Adelie 
 6 Adelie 
 7 Adelie 
 8 Adelie 
 9 Adelie 
10 Adelie 
# … with 334 more rows

# filter
my_filter <- function(data, col, `%test%`, value){
  filter(data, {{col}} %test% value)
}

my_filter(penguins, col = species, `%test%` = `==`, value = "Adelie")

# A tibble: 152 × 8
   species island    bill_length_mm bill_depth_mm flipper_length_mm body_mass_g
   <fct>   <fct>              <dbl>         <dbl>             <int>       <int>
 1 Adelie  Torgersen           39.1          18.7               181        3750
 2 Adelie  Torgersen           39.5          17.4               186        3800
 3 Adelie  Torgersen           40.3          18                 195        3250
 4 Adelie  Torgersen           NA            NA                  NA          NA
 5 Adelie  Torgersen           36.7          19.3               193        3450
 6 Adelie  Torgersen           39.3          20.6               190        3650
 7 Adelie  Torgersen           38.9          17.8               181        3625
 8 Adelie  Torgersen           39.2          19.6               195        4675
 9 Adelie  Torgersen           34.1          18.1               193        3475
10 Adelie  Torgersen           42            20.2               190        4250
# … with 142 more rows, and 2 more variables: sex <fct>, year <int>

#mutate Note the := operator.
my_mutate <- function(data, col1, col2, sum_col){
  mutate(data, {{sum_col}} := {{col1}} + {{col2}})
}

my_mutate(penguins, bill_length_mm, bill_depth_mm, sum_col = bill)

# A tibble: 344 × 9
   species island    bill_length_mm bill_depth_mm flipper_length_mm body_mass_g
   <fct>   <fct>              <dbl>         <dbl>             <int>       <int>
 1 Adelie  Torgersen           39.1          18.7               181        3750
 2 Adelie  Torgersen           39.5          17.4               186        3800
 3 Adelie  Torgersen           40.3          18                 195        3250
 4 Adelie  Torgersen           NA            NA                  NA          NA
 5 Adelie  Torgersen           36.7          19.3               193        3450
 6 Adelie  Torgersen           39.3          20.6               190        3650
 7 Adelie  Torgersen           38.9          17.8               181        3625
 8 Adelie  Torgersen           39.2          19.6               195        4675
 9 Adelie  Torgersen           34.1          18.1               193        3475
10 Adelie  Torgersen           42            20.2               190        4250
# … with 334 more rows, and 3 more variables: sex <fct>, year <int>, bill <dbl>
…
Another is to have the arguments as strings and use the .data pronoun from rlang (don’t forget to import rlang (see Section 4.4.1).

my_select3 <- function(data, col){
  select(data, .data[[col]])
}

my_select3(penguins, col = "species")

# A tibble: 344 × 1
   species
   <fct>  
 1 Adelie 
 2 Adelie 
 3 Adelie 
 4 Adelie 
 5 Adelie 
 6 Adelie 
 7 Adelie 
 8 Adelie 
 9 Adelie 
10 Adelie 
# … with 334 more rows
…
