4 Contents | Writing an R package
…
## Error: object 'species' not found

One solution is to use the curly-curly notation

#select
my_select2 <- function(data, col){
  select(data, {{col}})
}

my_select2(penguins, col = species)

## select: dropped 7 variables (island, bill_length_mm, bill_depth_mm, flipper_length_mm, body_mass_g, …)

## # A tibble: 344 × 1
##   species
##   <fct>  
## 1 Adelie 
## 2 Adelie 
## 3 Adelie 
## # … with 341 more rows

# filter
my_filter <- function(data, col, `%test%`, value){
  filter(data, {{col}} %test% value)
}

my_filter(penguins, col = species, `%test%` = `==`, value = "Adelie")

## filter: removed 192 rows (56%), 152 rows remaining

## # A tibble: 152 × 8
##   species island    bill_length_mm bill_depth_mm flipper_length_…
##   <fct>   <fct>              <dbl>         <dbl>            <int>
## 1 Adelie  Torgersen           39.1          18.7              181
## 2 Adelie  Torgersen           39.5          17.4              186
## 3 Adelie  Torgersen           40.3          18                195
## # … with 149 more rows, and 3 more variables:
## #   body_mass_g <int>, sex <fct>, year <int>

#mutate Note the := operator.
my_mutate <- function(data, col1, col2, sum_col){
  mutate(data, {{sum_col}} := {{col1}} + {{col2}})
}

my_mutate(penguins, bill_length_mm, bill_depth_mm, sum_col = bill)

## mutate: new variable 'bill' (double) with 198 unique values and 1% NA

## # A tibble: 344 × 9
##   species island    bill_length_mm bill_depth_mm flipper_length_…
##   <fct>   <fct>              <dbl>         <dbl>            <int>
## 1 Adelie  Torgersen           39.1          18.7              181
## 2 Adelie  Torgersen           39.5          17.4              186
## 3 Adelie  Torgersen           40.3          18                195
## # … with 341 more rows, and 4 more variables:
## #   body_mass_g <int>, sex <fct>, year <int>, bill <dbl>
…
Another is to have the arguments as strings and use the .data pronoun from rlang (don’t forget to import rlang (see section 4.4.1.

my_select3 <- function(data, col){
  select(data, .data[[col]])
}

my_select3(penguins, col = "species")

## select: dropped 7 variables (island, bill_length_mm, bill_depth_mm, flipper_length_mm, body_mass_g, …)

## # A tibble: 344 × 1
##   species
##   <fct>  
## 1 Adelie 
## 2 Adelie 
## 3 Adelie 
## # … with 341 more rows
…
