Working in R - 5 Installing packages
…
If you have code that worked one day and fails the next with a weird error messages, it might be because of a name conflict. If you start typing a function name into RStudio, it will show which package the function comes from.

There are three solutions.

5.8.2 Loading order

Be very careful about the order in which packages are loaded. If the example above had loaded MASS before dplyr the select function in MASS would have been masked and the code would have worked. This solution can is very fragile as it is easy to load packages in the wrong order.

5.8.3 package::function

Use the package::function notation to specify which package a function comes from. This is safe and can make code easier to understand by explicitly showing which packages the functions are from. The code above could be written safely as

penguins |> dplyr::select(species)

# A tibble: 344 × 1
  species
  <fct>  
1 Adelie 
2 Adelie 
3 Adelie 
# … with 341 more rows
…
