8 Objects and names – Working in R
…
data(penguins, package = "palmerpenguins")
penguins # available now

# A tibble: 344 × 8
  species island    bill_length_mm bill_depth_mm flipper_length_mm body_mass_g
  <fct>   <fct>              <dbl>         <dbl>             <int>       <int>
1 Adelie  Torgersen           39.1          18.7               181        3750
2 Adelie  Torgersen           39.5          17.4               186        3800
3 Adelie  Torgersen           40.3          18                 195        3250
# ℹ 341 more rows
# ℹ 2 more variables: sex <fct>, year <int>
…
