10 Data structures beyond the vector – Working in R
…
The object tbl below is a tibble that contains exactly the same observations and variables as df. It is built up by the function tibble().

tbl <- tibble(
  Year = rep(2017:2019, each = 12),
  Month = rep(month.name, 3),
  Avg_temperature = c(
    3.4, 2.8, 4.2, 5.8, 11.4, 12.6, 14.6, 13.9, 13.7, 9.2, 4.3, 3.1, 2.3, 0.5,
    0.8, 6.7, 13.5, 13.6, 16.2, 13.8, 11.6, 8.0, 6.6, 3.9, 1.7, 4.6, 4.0, 9.1,
    8.8, 13.2, 15.4, 15.8, 11.6, 7.8, 3.6, 4.8
  )
)
tbl

# A tibble: 36 × 3
    Year Month     Avg_temperature
   <int> <chr>               <dbl>
 1  2017 January               3.4
 2  2017 February              2.8
 3  2017 March                 4.2
 4  2017 April                 5.8
 5  2017 May                  11.4
 6  2017 June                 12.6
 7  2017 July                 14.6
 8  2017 August               13.9
 9  2017 September            13.7
10  2017 October               9.2
# ℹ 26 more rows
…
# A tibble: 1 × 3
   Year Month Avg_temperature
  <int> <chr>           <dbl>
1  2017 March             4.2

df[, "Avg_temperature"]

 [1]  3.4  2.8  4.2  5.8 11.4 12.6 14.6 13.9 13.7  9.2  4.3  3.1  2.3  0.5  0.8
[16]  6.7 13.5 13.6 16.2 13.8 11.6  8.0  6.6  3.9  1.7  4.6  4.0  9.1  8.8 13.2
[31] 15.4 15.8 11.6  7.8  3.6  4.8

tbl[, "Avg_temperature"]

# A tibble: 36 × 1
   Avg_temperature
             <dbl>
 1             3.4
 2             2.8
 3             4.2
 4             5.8
 5            11.4
 6            12.6
 7            14.6
 8            13.9
 9            13.7
10             9.2
# ℹ 26 more rows
…
 [1]  3.4  2.8  4.2  5.8 11.4 12.6 14.6 13.9 13.7  9.2  4.3  3.1  2.3  0.5  0.8
[16]  6.7 13.5 13.6 16.2 13.8 11.6  8.0  6.6  3.9  1.7  4.6  4.0  9.1  8.8 13.2
[31] 15.4 15.8 11.6  7.8  3.6  4.8

In Chapter 14 you will see an alternative way of manipulating tibbles with the dplyr package.

10.4.3 Transforming a data frame into a tibble

If you have been previously working with data frames, have been given a data frame to work with, or have imported data using functions that create data frames, you may convert them into tibbles by using as_tibble(). Here we convert the data frame df into a tibble:

df_as_tibble <- as_tibble(df)
df_as_tibble

# A tibble: 36 × 3
    Year Month     Avg_temperature
   <int> <chr>               <dbl>
 1  2017 January               3.4
 2  2017 February              2.8
 3  2017 March                 4.2
 4  2017 April                 5.8
 5  2017 May                  11.4
 6  2017 June                 12.6
 7  2017 July                 14.6
 8  2017 August               13.9
 9  2017 September            13.7
10  2017 October               9.2
# ℹ 26 more rows
…
