Working in R - 6 First steps in R
…
There are many datasets and other objects built into R or R packages. If the package is loaded, they can be used by typing their name.

pi

[1] 3.141593

month.abb# abbreviated month names

 [1] "Jan" "Feb" "Mar" "Apr" "May" "Jun" "Jul" "Aug" "Sep" "Oct" "Nov" "Dec"

To make objects in packages available you can either load the package with library() first, or use data().

penguins # not available

# A tibble: 344 × 8
  species island bill_length_mm bill_depth_mm flipper_length_… body_mass_g sex  
  <fct>   <fct>           <dbl>         <dbl>            <int>       <int> <fct>
1 Adelie  Torge…           39.1          18.7              181        3750 male 
2 Adelie  Torge…           39.5          17.4              186        3800 fema…
3 Adelie  Torge…           40.3          18                195        3250 fema…
# … with 341 more rows, and 1 more variable: year <int>

data(penguins, package = "palmerpenguins")
penguins

# A tibble: 344 × 8
  species island bill_length_mm bill_depth_mm flipper_length_… body_mass_g sex  
  <fct>   <fct>           <dbl>         <dbl>            <int>       <int> <fct>
1 Adelie  Torge…           39.1          18.7              181        3750 male 
2 Adelie  Torge…           39.5          17.4              186        3800 fema…
3 Adelie  Torge…           40.3          18                195        3250 fema…
# … with 341 more rows, and 1 more variable: year <int>
…
As you may see, you get at once the whole data set with all 36 rows, the 3 variables, the header with column names and the first column that gives a number to each row.

The object tbl below is a tibble that contains exactly the same observations and variables as df. It is built up by the function tibble().

tbl <- tibble(Year = rep(2017:2019, each = 12), 
             Month = rep(month.name, 3), 
             Avg_temperature = c(3.4, 2.8, 4.2, 5.8, 11.4, 12.6, 14.6, 13.9, 13.7, 9.2, 4.3, 3.1, 2.3, 0.5, 0.8, 6.7, 13.5, 13.6, 16.2, 13.8, 11.6, 8.0, 6.6, 3.9, 1.7, 4.6, 4.0, 9.1, 8.8, 13.2, 15.4, 15.8, 11.6, 7.8, 3.6, 4.8))
tbl

# A tibble: 36 × 3
   Year Month    Avg_temperature
  <int> <chr>              <dbl>
1  2017 January              3.4
2  2017 February             2.8
3  2017 March                4.2
# … with 33 more rows
…
# A tibble: 1 × 3
   Year Month Avg_temperature
  <int> <chr>           <dbl>
1  2017 March             4.2

df[ , "Avg_temperature"]

 [1]  3.4  2.8  4.2  5.8 11.4 12.6 14.6 13.9 13.7  9.2  4.3  3.1  2.3  0.5  0.8
[16]  6.7 13.5 13.6 16.2 13.8 11.6  8.0  6.6  3.9  1.7  4.6  4.0  9.1  8.8 13.2
[31] 15.4 15.8 11.6  7.8  3.6  4.8

tbl[ , "Avg_temperature"]

# A tibble: 36 × 1
  Avg_temperature
            <dbl>
1             3.4
2             2.8
3             4.2
# … with 33 more rows
…
 [1]  3.4  2.8  4.2  5.8 11.4 12.6 14.6 13.9 13.7  9.2  4.3  3.1  2.3  0.5  0.8
[16]  6.7 13.5 13.6 16.2 13.8 11.6  8.0  6.6  3.9  1.7  4.6  4.0  9.1  8.8 13.2
[31] 15.4 15.8 11.6  7.8  3.6  4.8

In Chapter 10 you will see an alternative way of manipulating tibbles with the dplyr package.

6.5.3.4.3 Transforming a data frame into a tibble

If you have been previously working with data frames, have been given a data frame to work with, or have imported data using functions that create data frames, you may convert them into tibbles by using as_tibble(). Here we convert the data frame df into a tibble:

df_as_tibble <- as_tibble(df)
df_as_tibble 

# A tibble: 36 × 3
   Year Month    Avg_temperature
  <int> <chr>              <dbl>
1  2017 January              3.4
2  2017 February             2.8
3  2017 March                4.2
# … with 33 more rows
…
