Working in R - 14 Working with single tables in dplyr
…
library("tidylog")

More than once, tidylog has helped identified bugs in my code.

14.1 The penguins dataset

This tutorial will use the penguins dataset from the palmerpenguins package. This dataset includes measurements of three species of penguin.

# Load the data
data("penguins", package = "palmerpenguins")
# Show the data
penguins

# A tibble: 344 × 8
  species island    bill_length_mm bill_depth_mm flipper_length_mm body_mass_g
  <fct>   <fct>              <dbl>         <dbl>             <int>       <int>
1 Adelie  Torgersen           39.1          18.7               181        3750
2 Adelie  Torgersen           39.5          17.4               186        3800
3 Adelie  Torgersen           40.3          18                 195        3250
# ℹ 341 more rows
# ℹ 2 more variables: sex <fct>, year <int>

14.2 Selecting columns with select()

You can choose which columns of the data frame you want with select().

The first argument is the data, which is supplied by the pipe |>, the next arguments are the names of the columns you want. The names do not need quote marks.

#select species, bill_length_mm & bill_depth_mm
penguins |> 
  select(species, bill_length_mm, bill_depth_mm)

select: dropped 5 variables (island, flipper_length_mm, body_mass_g, sex, year)

# A tibble: 344 × 3
  species bill_length_mm bill_depth_mm
  <fct>            <dbl>         <dbl>
1 Adelie            39.1          18.7
2 Adelie            39.5          17.4
3 Adelie            40.3          18  
# ℹ 341 more rows

This is equivalent to the base R code

#select species, bill_length_mm & bill_depth_mm
penguins[, c("species", "bill_length_mm", "bill_depth_mm")] 

# A tibble: 344 × 3
  species bill_length_mm bill_depth_mm
  <fct>            <dbl>         <dbl>
1 Adelie            39.1          18.7
2 Adelie            39.5          17.4
3 Adelie            40.3          18  
# ℹ 341 more rows
…
penguins |> 
  select(___, ___)

14.2.1 select() helpers

Sometimes we don’t want to write out the names of all the columns we want to select. We might not even know them all in advance. Fortunately there are some helper functions.

If you want to select() adjacent columns, you can use the notation first:last.

#select species to bill_depth_mm
penguins |> select(species:bill_depth_mm)

select: dropped 4 variables (flipper_length_mm, body_mass_g, sex, year)

# A tibble: 344 × 4
  species island    bill_length_mm bill_depth_mm
  <fct>   <fct>              <dbl>         <dbl>
1 Adelie  Torgersen           39.1          18.7
2 Adelie  Torgersen           39.5          17.4
3 Adelie  Torgersen           40.3          18  
# ℹ 341 more rows

Sometimes it is easier to remove the columns you don’t want. You can do this by putting a - in front of the column name.

#select everything but year and sex
penguins |> select(-year, -sex)

select: dropped 2 variables (sex, year)

# A tibble: 344 × 6
  species island    bill_length_mm bill_depth_mm flipper_length_mm body_mass_g
  <fct>   <fct>              <dbl>         <dbl>             <int>       <int>
1 Adelie  Torgersen           39.1          18.7               181        3750
2 Adelie  Torgersen           39.5          17.4               186        3800
3 Adelie  Torgersen           40.3          18                 195        3250
# ℹ 341 more rows

If there is a pattern to the column names that we want to select (or remove), there are some helper functions. For example, to select columns that start with “bill”, we can use starts_with().

#select bill_length_mm & bill_depth_mm" 
penguins |> select(starts_with("bill"))

select: dropped 6 variables (species, island, flipper_length_mm, body_mass_g, sex, …)

# A tibble: 344 × 2
  bill_length_mm bill_depth_mm
           <dbl>         <dbl>
1           39.1          18.7
2           39.5          17.4
3           40.3          18  
# ℹ 341 more rows

Conversely, if we want to select all columns that end with “mm”, we can use ends_with(). contains() is more flexible and matches() is the most powerful of the helper functions, using regular expressions to identify the columns (see the regular expression tutorial).

Sometimes, you might want to select all the columns of a certain type. For example, to select all the numeric columns we can use the is.numeric function inside select() with the helper where().

penguins |> select(where(is.numeric)) # No brackets on the function

select: dropped 3 variables (species, island, sex)

# A tibble: 344 × 5
  bill_length_mm bill_depth_mm flipper_length_mm body_mass_g  year
           <dbl>         <dbl>             <int>       <int> <int>
1           39.1          18.7               181        3750  2007
2           39.5          17.4               186        3800  2007
3           40.3          18                 195        3250  2007
# ℹ 341 more rows
…
# hint 2
?where

# hint 3
?ends_with

14.3 Renaming columns with rename

You can use rename() to rename columns

penguins |> rename(Species = species)

rename: renamed one variable (Species)

# A tibble: 344 × 8
  Species island    bill_length_mm bill_depth_mm flipper_length_mm body_mass_g
  <fct>   <fct>              <dbl>         <dbl>             <int>       <int>
1 Adelie  Torgersen           39.1          18.7               181        3750
2 Adelie  Torgersen           39.5          17.4               186        3800
3 Adelie  Torgersen           40.3          18                 195        3250
# ℹ 341 more rows
# ℹ 2 more variables: sex <fct>, year <int>

The syntax is new_name = current_name.

You can also rename a column when selecting. This is convenient if you are using select() anyway.

penguins |> select(Species = species)

select: renamed one variable (Species) and dropped 7 variables

# A tibble: 344 × 1
  Species
  <fct>  
1 Adelie 
2 Adelie 
3 Adelie 
# ℹ 341 more rows

14.4 Moving columns with relocate()

Sometimes it is useful to reorder the columns. This is never necessary for data analysis or plotting, but can be needed when making a table for presentation.

penguins |> relocate(island)

relocate: columns reordered (island, species, bill_length_mm, bill_depth_mm, flipper_length_mm, …)

# A tibble: 344 × 8
  island    species bill_length_mm bill_depth_mm flipper_length_mm body_mass_g
  <fct>     <fct>            <dbl>         <dbl>             <int>       <int>
1 Torgersen Adelie            39.1          18.7               181        3750
2 Torgersen Adelie            39.5          17.4               186        3800
3 Torgersen Adelie            40.3          18                 195        3250
# ℹ 341 more rows
# ℹ 2 more variables: sex <fct>, year <int>

The default is to move the named column first, the .before and .after arguments let you move the column into any position.

14.5 Filtering rows with filter()

Filtering rows that meet some condition is a very common task.

For example, to filter rows of penguins that have a bill length greater than 40 mm, we can use

penguins |> filter(bill_length_mm > 40)

filter: removed 102 rows (30%), 242 rows remaining

# A tibble: 242 × 8
  species island    bill_length_mm bill_depth_mm flipper_length_mm body_mass_g
  <fct>   <fct>              <dbl>         <dbl>             <int>       <int>
1 Adelie  Torgersen           40.3          18                 195        3250
2 Adelie  Torgersen           42            20.2               190        4250
3 Adelie  Torgersen           41.1          17.6               182        3200
# ℹ 239 more rows
# ℹ 2 more variables: sex <fct>, year <int>

This will filter out each row where the condition is TRUE.

The base R equivalent of this is

penguins[penguins$bill_length_mm > 40, ]

# A tibble: 244 × 8
  species island    bill_length_mm bill_depth_mm flipper_length_mm body_mass_g
  <fct>   <fct>              <dbl>         <dbl>             <int>       <int>
1 Adelie  Torgersen           40.3          18                 195        3250
2 <NA>    <NA>                NA            NA                  NA          NA
3 Adelie  Torgersen           42            20.2               190        4250
# ℹ 241 more rows
# ℹ 2 more variables: sex <fct>, year <int>
…
>= greater than or equal to

is.na() for filtering by missing values.

between() for filtering values with a range

%in% is used when you want to test if a value is in a vector

penguins |> 
  filter(species %in% c("Adelie", "Chinstrap"))

filter: removed 124 rows (36%), 220 rows remaining

# A tibble: 220 × 8
  species island    bill_length_mm bill_depth_mm flipper_length_mm body_mass_g
  <fct>   <fct>              <dbl>         <dbl>             <int>       <int>
1 Adelie  Torgersen           39.1          18.7               181        3750
2 Adelie  Torgersen           39.5          17.4               186        3800
3 Adelie  Torgersen           40.3          18                 195        3250
# ℹ 217 more rows
# ℹ 2 more variables: sex <fct>, year <int>

#equivalent to 
penguins |> 
  filter(species == "Adelie" | species == "Chinstrap") # with many alternatives, this gets long

filter: removed 124 rows (36%), 220 rows remaining

# A tibble: 220 × 8
  species island    bill_length_mm bill_depth_mm flipper_length_mm body_mass_g
  <fct>   <fct>              <dbl>         <dbl>             <int>       <int>
1 Adelie  Torgersen           39.1          18.7               181        3750
2 Adelie  Torgersen           39.5          17.4               186        3800
3 Adelie  Torgersen           40.3          18                 195        3250
# ℹ 217 more rows
# ℹ 2 more variables: sex <fct>, year <int>

14.5.1 Filtering on multiple criteria

If we want to filter on multiple criteria, we need to decide whether we want all criteria to be TRUE (AND in Boolean logic), or for one or more to be TRUE (OR in Boolean logic).

If we want all criteria to be TRUE, we can separate them by a comma (or by an & if you want to be explicit).

penguins |> 
  filter(bill_length_mm > 40, bill_depth_mm > 18)

filter: removed 263 rows (76%), 81 rows remaining

# A tibble: 81 × 8
  species island    bill_length_mm bill_depth_mm flipper_length_mm body_mass_g
  <fct>   <fct>              <dbl>         <dbl>             <int>       <int>
1 Adelie  Torgersen           42            20.2               190        4250
2 Adelie  Torgersen           42.5          20.7               197        4500
3 Adelie  Torgersen           46            21.5               194        4200
# ℹ 78 more rows
# ℹ 2 more variables: sex <fct>, year <int>

If we want rows where any of the criteria is TRUE, we can separate them by a |.

penguins |> 
  filter(bill_length_mm > 40 | bill_depth_mm > 18)

filter: removed 53 rows (15%), 291 rows remaining

# A tibble: 291 × 8
  species island    bill_length_mm bill_depth_mm flipper_length_mm body_mass_g
  <fct>   <fct>              <dbl>         <dbl>             <int>       <int>
1 Adelie  Torgersen           39.1          18.7               181        3750
2 Adelie  Torgersen           40.3          18                 195        3250
3 Adelie  Torgersen           36.7          19.3               193        3450
# ℹ 288 more rows
# ℹ 2 more variables: sex <fct>, year <int>

We can negate a criterion by putting ! in front of it. So to filter rows that do not have bills longer than 40 mm we can use

penguins |> filter(!bill_length_mm > 40)

filter: removed 244 rows (71%), 100 rows remaining

# A tibble: 100 × 8
  species island    bill_length_mm bill_depth_mm flipper_length_mm body_mass_g
  <fct>   <fct>              <dbl>         <dbl>             <int>       <int>
1 Adelie  Torgersen           39.1          18.7               181        3750
2 Adelie  Torgersen           39.5          17.4               186        3800
3 Adelie  Torgersen           36.7          19.3               193        3450
# ℹ 97 more rows
# ℹ 2 more variables: sex <fct>, year <int>
…
You can use negative numbers to remove rows. Be careful using slice() as if the data change, different rows may be returned.

14.7 Distinct rows with distinct()

If there are duplicates in the data, we can remove these with distinct(). distinct() with no extra arguments will remove duplicate rows.

penguins |> distinct()

distinct: no rows removed

# A tibble: 344 × 8
  species island    bill_length_mm bill_depth_mm flipper_length_mm body_mass_g
  <fct>   <fct>              <dbl>         <dbl>             <int>       <int>
1 Adelie  Torgersen           39.1          18.7               181        3750
2 Adelie  Torgersen           39.5          17.4               186        3800
3 Adelie  Torgersen           40.3          18                 195        3250
# ℹ 341 more rows
# ℹ 2 more variables: sex <fct>, year <int>
…
14.9 Mutating and adding columns with mutate

The function mutate() can add an new column or replace an existing one.

To make a new column called body_mass_kg we can use

penguins |> 
  mutate(body_mass_kg = body_mass_g / 1000)

mutate: new variable 'body_mass_kg' (double) with 95 unique values and 1% NA

# A tibble: 344 × 9
  species island    bill_length_mm bill_depth_mm flipper_length_mm body_mass_g
  <fct>   <fct>              <dbl>         <dbl>             <int>       <int>
1 Adelie  Torgersen           39.1          18.7               181        3750
2 Adelie  Torgersen           39.5          17.4               186        3800
3 Adelie  Torgersen           40.3          18                 195        3250
# ℹ 341 more rows
# ℹ 3 more variables: sex <fct>, year <int>, body_mass_kg <dbl>
…
the maximum and minimum bill depth of each species

Hint

penguins |> 
  group_by(___)
  summarise(___ =  ___(___))

14.12 Sorting with arrange()

To sort the data frame by one or more of the variables we can use arrange().

penguins |> arrange(bill_length_mm, bill_depth_mm)

# A tibble: 344 × 8
  species island    bill_length_mm bill_depth_mm flipper_length_mm body_mass_g
  <fct>   <fct>              <dbl>         <dbl>             <int>       <int>
1 Adelie  Dream               32.1          15.5               188        3050
2 Adelie  Dream               33.1          16.1               178        2900
3 Adelie  Torgersen           33.5          19                 190        3600
# ℹ 341 more rows
# ℹ 2 more variables: sex <fct>, year <int>

This will sort smallest first. To reverse the sort order, use desc()

penguins |> arrange(desc(bill_length_mm), desc(bill_depth_mm))

# A tibble: 344 × 8
  species   island bill_length_mm bill_depth_mm flipper_length_mm body_mass_g
  <fct>     <fct>           <dbl>         <dbl>             <int>       <int>
1 Gentoo    Biscoe           59.6          17                 230        6050
2 Chinstrap Dream            58            17.8               181        3700
3 Gentoo    Biscoe           55.9          17                 228        5600
# ℹ 341 more rows
# ℹ 2 more variables: sex <fct>, year <int>
…
