27 Handling missing values – Working in R
…
When you import a text file (e.g., a csv file) any blank cells, or cells with “NA” will be treated as NA. If you have coded missing values as something else, you can use the na argument to read_delim()

# set blank cells, "NA" or "missing" to NA
read_delim(file = "my_file.csv", na = c("", "NA", "missing"))

In readxl::read_excel(), the default for the na argument is just for blank cells to be made NA, but other values can be added in the same way as in read_delim().

27.1.3 Removing rows with missing values

We can remove rows with NA in particular columns from a data frame using drop_na(). For example, to remove rows in the penguins data set with an NA in the bill_length_mm or bill_depth_mm columns, we could use

penguins |>
  drop_na(bill_length_mm, bill_depth_mm)

# A tibble: 342 × 8
  species island    bill_length_mm bill_depth_mm flipper_length_mm body_mass_g
  <fct>   <fct>              <dbl>         <dbl>             <int>       <int>
1 Adelie  Torgersen           39.1          18.7               181        3750
2 Adelie  Torgersen           39.5          17.4               186        3800
3 Adelie  Torgersen           40.3          18                 195        3250
# ℹ 339 more rows
# ℹ 2 more variables: sex <fct>, year <int>

Alternatively, we can use filter() and is.na(). This is most useful when removing NA is one of several arguments to filter.

penguins |>
  filter(species == "Gentoo", !is.na(bill_length_mm))

# A tibble: 123 × 8
  species island bill_length_mm bill_depth_mm flipper_length_mm body_mass_g
  <fct>   <fct>           <dbl>         <dbl>             <int>       <int>
1 Gentoo  Biscoe           46.1          13.2               211        4500
2 Gentoo  Biscoe           50            16.3               230        5700
3 Gentoo  Biscoe           48.7          14.1               210        4450
# ℹ 120 more rows
# ℹ 2 more variables: sex <fct>, year <int>
…
Sometimes you want to replace NA with another value. Perhaps you want to make a plot where NA values are labelled unknown, or you know that the NA values are actually zeros, or the NA are values below the detection limit of an instrument and you want to replace these with half the detection limit.

You can use tidyr::replace_na() to do this.

Here, the code replaces missing values for bill length with the mean value for bill length.

penguins |>
  mutate(
    bill_length_mm = replace_na(
      data = bill_length_mm,
      replace = mean(bill_length_mm, na.rm = TRUE)
    )
  )

# A tibble: 344 × 8
  species island    bill_length_mm bill_depth_mm flipper_length_mm body_mass_g
  <fct>   <fct>              <dbl>         <dbl>             <int>       <int>
1 Adelie  Torgersen           39.1          18.7               181        3750
2 Adelie  Torgersen           39.5          17.4               186        3800
3 Adelie  Torgersen           40.3          18                 195        3250
# ℹ 341 more rows
# ℹ 2 more variables: sex <fct>, year <int>
…
Error in `mutate()`:
ℹ In argument: `fit = fitted(mod)`.
Caused by error:
! `fit` must be size 344 or 1, not 342.

The problem is that there are fewer observation in the model (which omitted the NA) than the original data frame (which still has them).

We can make this work by using na.action = na.exclude which will pad the fitted values with NA so that it is the same length as the original data.

mod <- lm(bill_length_mm ~ body_mass_g, data = penguins, na.action = na.exclude)

penguins |> mutate(fit = fitted(mod))

# A tibble: 344 × 9
  species island    bill_length_mm bill_depth_mm flipper_length_mm body_mass_g
  <fct>   <fct>              <dbl>         <dbl>             <int>       <int>
1 Adelie  Torgersen           39.1          18.7               181        3750
2 Adelie  Torgersen           39.5          17.4               186        3800
3 Adelie  Torgersen           40.3          18                 195        3250
# ℹ 341 more rows
# ℹ 3 more variables: sex <fct>, year <int>, fit <dbl>
…
