3 First steps in R | Working in R
…
As you may see, you get at once the whole data set with all 36 rows, the 3 variables, the header with column names and the first column that gives a number to each row.

The object tbl below is a tibble that contains exactly the same observations and variables as df. It is built up by the function tibble().

tbl <- tibble(Year = rep(2017:2019, each = 12), 
             Month = rep(month.name, 3), 
             Avg_temperature = c(3.4, 2.8, 4.2, 5.8, 11.4, 12.6, 14.6, 13.9, 13.7, 9.2, 4.3, 3.1, 2.3, 0.5, 0.8, 6.7, 13.5, 13.6, 16.2, 13.8, 11.6, 8.0, 6.6, 3.9, 1.7, 4.6, 4.0, 9.1, 8.8, 13.2, 15.4, 15.8, 11.6, 7.8, 3.6, 4.8))
tbl

## # A tibble: 36 × 3
##    Year Month    Avg_temperature
##   <int> <chr>              <dbl>
## 1  2017 January              3.4
## 2  2017 February             2.8
## 3  2017 March                4.2
## # … with 33 more rows
…
## # A tibble: 1 × 3
##    Year Month Avg_temperature
##   <int> <chr>           <dbl>
## 1  2017 March             4.2

df[ , "Avg_temperature"]

##  [1]  3.4  2.8  4.2  5.8 11.4 12.6 14.6 13.9 13.7
## [10]  9.2  4.3  3.1  2.3  0.5  0.8  6.7 13.5 13.6
## [19] 16.2 13.8 11.6  8.0  6.6  3.9  1.7  4.6  4.0
## [28]  9.1  8.8 13.2 15.4 15.8 11.6  7.8  3.6  4.8

tbl[ , "Avg_temperature"]

## # A tibble: 36 × 1
##   Avg_temperature
##             <dbl>
## 1             3.4
## 2             2.8
## 3             4.2
## # … with 33 more rows
…
In Chapter 7 you will see an alternative way of manipulating tibbles with the dplyr package.

3.5.3.4.3 Transforming a data frame into a tibble

If you have been previously working with data frames, have been given a data frame to work with, or have imported data using functions that create data frames, you may convert them into tibbles by using as_tibble().
Here we convert the data frame df into a tibble:

df_as_tibble <- as_tibble(df)
df_as_tibble 

## # A tibble: 36 × 3
##    Year Month    Avg_temperature
##   <int> <chr>              <dbl>
## 1  2017 January              3.4
## 2  2017 February             2.8
## 3  2017 March                4.2
## # … with 33 more rows

3.5.3.4.4 Penguins as a recurrent example

Here is the tibble called penguins which is part of the package palmerpenguins, and which was used previously in section 3.3.1.
You will certainly meet this tibble again and again on this website as it provides a convenient set of variables and observations well-suited for illustrating many purposes.

penguins

## # A tibble: 344 × 8
##   species island    bill_length_mm bill_depth_mm
##   <fct>   <fct>              <dbl>         <dbl>
## 1 Adelie  Torgersen           39.1          18.7
## 2 Adelie  Torgersen           39.5          17.4
## 3 Adelie  Torgersen           40.3          18  
## # … with 341 more rows, and 4 more variables:
## #   flipper_length_mm <int>, body_mass_g <int>,
## #   sex <fct>, year <int>
…
