11 Getting started with ggplot | Working in R
…
We will mostly work with the Palmer Penguin data set [@Horst2020-jy].
If you are unfamiliar with the dataset have a look at this webpage: https://github.com/allisonhorst/palmerpenguins

To install the dataset run this code:

install.packages("palmerpenguins")

data(penguin, package = 'palmerpenguins')

The datasets contains data on 344 individuals from three species of penguins, collected from tree islands in the Palmer Archipelago, Antarctica.
It includes several morphological traits like bill length and depth, flipper length, body mass, and sex.

penguins

## # A tibble: 344 × 8
##   species island    bill_length_mm bill_depth_mm flipper_length_mm
##   <fct>   <fct>              <dbl>         <dbl>             <int>
## 1 Adelie  Torgersen           39.1          18.7               181
## 2 Adelie  Torgersen           39.5          17.4               186
## 3 Adelie  Torgersen           40.3          18                 195
## # … with 341 more rows, and 3 more variables: body_mass_g <int>,
## #   sex <fct>, year <int>
…
