15 Handling missing values | Working in R
…
In readxl::read_excel, the default for the na argument is just for blank cells to be made NA, but other values can be added in the same way as in read_delim.

15.1.3 Removing rows with missing values

We can remove rows with NA in particular columns from a data frame using drop_na.
For example, to remove rows in the penguins data set with an NA in the bill_length_mm or bill_depth_mm columns, we could use

penguins |> 
  drop_na(bill_length_mm, bill_depth_mm)

## drop_na: removed 2 rows (1%), 342 rows remaining

## # A tibble: 342 × 8
##   species island    bill_length_mm bill_depth_mm flipper_length_…
##   <fct>   <fct>              <dbl>         <dbl>            <int>
## 1 Adelie  Torgersen           39.1          18.7              181
## 2 Adelie  Torgersen           39.5          17.4              186
## 3 Adelie  Torgersen           40.3          18                195
## # … with 339 more rows, and 3 more variables:
## #   body_mass_g <int>, sex <fct>, year <int>

Alternatively, we can use filter and is.na.
This is most useful when removing NA is one of several arguments to filter.

penguins |> 
  filter(species == "Gentoo", !is.na(bill_length_mm))

## filter: removed 221 rows (64%), 123 rows remaining

## # A tibble: 123 × 8
##   species island bill_length_mm bill_depth_mm flipper_length_…
##   <fct>   <fct>           <dbl>         <dbl>            <int>
## 1 Gentoo  Biscoe           46.1          13.2              211
## 2 Gentoo  Biscoe           50            16.3              230
## 3 Gentoo  Biscoe           48.7          14.1              210
## # … with 120 more rows, and 3 more variables:
## #   body_mass_g <int>, sex <fct>, year <int>
…
You can use tidyr::replace_na to do this.

Here, the code replaces missing values for bill length with the mean value for bill length.

penguins |> 
  mutate(
    bill_length_mm = replace_na(
      data = bill_length_mm, 
      replace = mean(bill_length_mm, na.rm = TRUE))
  )

## mutate: changed 2 values (1%) of 'bill_length_mm' (2 fewer NA)

## # A tibble: 344 × 8
##   species island    bill_length_mm bill_depth_mm flipper_length_…
##   <fct>   <fct>              <dbl>         <dbl>            <int>
## 1 Adelie  Torgersen           39.1          18.7              181
## 2 Adelie  Torgersen           39.5          17.4              186
## 3 Adelie  Torgersen           40.3          18                195
## # … with 341 more rows, and 3 more variables:
## #   body_mass_g <int>, sex <fct>, year <int>
…
## Error: Problem with `mutate()` column `fit`.
## ℹ `fit = fitted(mod)`.
## ℹ `fit` must be size 344 or 1, not 342.

The problem is that there are fewer observation in the model (which omitted the NA) than the original data frame (which still has them).

We can make this work by using na.action = na.exclude which will pad the fitted values with NA so that it is the same length as the original data.

mod <- lm(bill_length_mm ~ body_mass_g, data = penguins, na.action = na.exclude)

penguins |> mutate(fit = fitted(mod))

## mutate: new variable 'fit' (double) with 99 unique values and 1% NA

## # A tibble: 344 × 9
##   species island    bill_length_mm bill_depth_mm flipper_length_…
##   <fct>   <fct>              <dbl>         <dbl>            <int>
## 1 Adelie  Torgersen           39.1          18.7              181
## 2 Adelie  Torgersen           39.5          17.4              186
## 3 Adelie  Torgersen           40.3          18                195
## # … with 341 more rows, and 4 more variables:
## #   body_mass_g <int>, sex <fct>, year <int>, fit <dbl>
…
