6 Tidying data with tidyr | Working in R
…
This might be a nice way to present the data but it is not tidy data:
each row is not an observation; each column is not a variable.

We can use pivot_longer() to reshape the data.
The months, selected by the cols argument in the column names (see section 7.2.1 for more on the syntax used here) will become a new variable with a name set by the names_to, and the data values get put into a column named by the values_to argument.

bergen_klima_long <- bergen_klima |> 
  pivot_longer(cols = Jan:Des, names_to = "Month", values_to = "value")

## pivot_longer: reorganized (Jan, Feb, Mar, Apr, Mai, …) into (Month, value) [was 4x13, now 48x3]

bergen_klima_long

## # A tibble: 48 × 3
##   Måned                 Month value
##   <chr>                 <chr> <dbl>
## 1 Normal maks. temp. °C Jan     3.6
## 2 Normal maks. temp. °C Feb     4  
## 3 Normal maks. temp. °C Mar     5.9
## # … with 45 more rows
…
