15 Using functions and packages | Working in R
…
15.6.2 Loading order

Be very careful about the order in which packages are loaded.
If the example above had loaded MASS before dplyr the select function in MASS would have been masked and the code would have worked.
This solution can work in a script that you source, but is fragile in interactive sessions when it is easy to load packages in the wrong order.

15.6.3 package::function

Use the package::function notation to specify which package a function comes from.
This is safe and can make code easier to understand by showing which packages the functions are from. The code above could be written safely as

penguins |> dplyr::select(species)

## # A tibble: 344 × 1
##   species
##   <fct>  
## 1 Adelie 
## 2 Adelie 
## 3 Adelie 
## # … with 341 more rows
…
