5 Simple linear Regression – Statistics in R
…
Polar Bear Science

Marine Biology, compiled by Steele, edited by Steele, Thorpe, Turekian, 2009, Elsevier Ltd

North Atlantic Marine Mammal Commission

National Oceanic and Atmospheric Administration, USA

Department of Conservation, New Zealand

First, we want to import the data and have a closer look by making a plot.

dive_data

# A tibble: 30 × 6
   species                 max_depth body_size_kg group    Species         Group
   <chr>                       <int>        <dbl> <chr>    <fct>           <fct>
 1 Orca                          264         4500 Twhale   Orca            Twha…
 2 WeddellSeal                   741          500 Pinniped WeddellSeal     Pinn…
 3 LongFinnedPilot               828         1300 Twhale   LongFinnedPilot Twha…
 4 ShortFinnedPilot             1019         2000 Twhale   ShortFinnedPil… Twha…
 5 BlainvillesBeakedWhale       1408          900 Twhale   BlainvillesBea… Twha…
 6 NorthernBottlenoseWhale      1453         8000 Twhale   NorthernBottle… Twha…
 7 SouthernElephantSeal         1653         3000 Pinniped SouthernElepha… Pinn…
 8 BairdsBeakedWhale            1777        12000 Twhale   BairdsBeakedWh… Twha…
 9 SpermWhale                   2035        27000 Twhale   SpermWhale      Twha…
10 CuviersBeakedWhale           2992         2500 Twhale   CuviersBeakedW… Twha…
# ℹ 20 more rows
…
