Statistics in R - 8 Binomial generalized linear models
…
The data consists of five variables:

Year - year of recording

Age - age of the sheep in years

Survival - whether the sheep survived until the next year or not

Weight - weight in kg

Population size (PopSize) - number of females counted that year

sheep_data

# A tibble: 1,328 × 5
    Year   Age Survival Weight PopSize
   <dbl> <dbl>    <dbl>  <dbl>   <dbl>
 1  1987    11        1   26.5     331
 2  1988    12        0   27.2     457
 3  1987    10        1   26       331
 4  1988    11        0   26       457
 5  1986     8        1   26.7     211
 6  1987     9        0   24       331
 7  1986     8        1   26.5     211
 8  1987     9        1   25       331
 9  1988    10        0   23.2     457
10  1988    10        0   22.2     457
# … with 1,318 more rows
…
predictions

# A tibble: 100 × 5
   explanatory predictions_link SE_link predictions_response SE_response
         <dbl>            <dbl>   <dbl>                <dbl>       <dbl>
 1       -4.12            -2.43   0.759               0.0811      0.0566
 2       -3.88            -2.38   0.745               0.0848      0.0578
 3       -3.64            -2.33   0.731               0.0887      0.0591
 4       -3.40            -2.28   0.717               0.0927      0.0603
 5       -3.16            -2.23   0.703               0.0968      0.0615
 6       -2.92            -2.18   0.690               0.101       0.0627
 7       -2.68            -2.14   0.676               0.106       0.0639
 8       -2.44            -2.09   0.662               0.110       0.0650
 9       -2.20            -2.04   0.648               0.115       0.0661
10       -1.96            -1.99   0.634               0.120       0.0671
# … with 90 more rows
…
